R語言基礎+資料載入與前處理
…
semi_join()

anti_join()

資料結合 - inner_join()

只保留兩張表都有的列
使用方法 inner_join(x, y, by = )

#install.packages("dplyr") 第一次使用先安裝
library(dplyr)
inner_join(BasicS,EMDiagS,by="歸戶代號")

# A tibble: 4,027 x 14
   院區.x                                 歸戶代號  性別     生日 院區.y
    <chr>                                    <chr> <chr>    <int>  <int>
 1      1 DB26EFB5F66F696208693AA3D402D03B2B8D1CB5     F 19581201      3
 2      1 DB26EFB5F66F696208693AA3D402D03B2B8D1CB5     F 19581201      3
 3      1 DB26EFB5F66F696208693AA3D402D03B2B8D1CB5     F 19581201      3
 4      1 DB26EFB5F66F696208693AA3D402D03B2B8D1CB5     F 19581201      3
 5      1 DB26EFB5F66F696208693AA3D402D03B2B8D1CB5     F 19581201      3
 6      5 80DB2AFAAEADC0874A35C71DB8CC693B6B33D7BF     F 19680725      3
 7      5 80DB2AFAAEADC0874A35C71DB8CC693B6B33D7BF     F 19680725      3
 8      5 80DB2AFAAEADC0874A35C71DB8CC693B6B33D7BF     F 19680725      3
 9      5 80DB2AFAAEADC0874A35C71DB8CC693B6B33D7BF     F 19680725      3
10      5 80DB2AFAAEADC0874A35C71DB8CC693B6B33D7BF     F 19680725      3
# ... with 4,017 more rows, and 9 more variables: 資料年月 <int>,
#   輸入日期 <int>, 門診號 <chr>, 掛號科別 <chr>, 疾病序號 <int>,
#   疾病碼 <chr>, 主診斷 <chr>, 重大傷病 <chr>, 資料年齡 <chr>

資料結合 - left_join()

保留左邊的表所有的列
使用方法 left_join(x, y, by = )

library(dplyr)
left_join(BasicS,EMDiagS,by="歸戶代號")

# A tibble: 4,532 x 14
   院區.x                                 歸戶代號  性別     生日 院區.y
    <chr>                                    <chr> <chr>    <int>  <int>
 1      1 DB26EFB5F66F696208693AA3D402D03B2B8D1CB5     F 19581201      3
 2      1 DB26EFB5F66F696208693AA3D402D03B2B8D1CB5     F 19581201      3
 3      1 DB26EFB5F66F696208693AA3D402D03B2B8D1CB5     F 19581201      3
 4      1 DB26EFB5F66F696208693AA3D402D03B2B8D1CB5     F 19581201      3
 5      1 DB26EFB5F66F696208693AA3D402D03B2B8D1CB5     F 19581201      3
 6      5 80DB2AFAAEADC0874A35C71DB8CC693B6B33D7BF     F 19680725      3
 7      5 80DB2AFAAEADC0874A35C71DB8CC693B6B33D7BF     F 19680725      3
 8      5 80DB2AFAAEADC0874A35C71DB8CC693B6B33D7BF     F 19680725      3
 9      5 80DB2AFAAEADC0874A35C71DB8CC693B6B33D7BF     F 19680725      3
10      5 80DB2AFAAEADC0874A35C71DB8CC693B6B33D7BF     F 19680725      3
# ... with 4,522 more rows, and 9 more variables: 資料年月 <int>,
#   輸入日期 <int>, 門診號 <chr>, 掛號科別 <chr>, 疾病序號 <int>,
#   疾病碼 <chr>, 主診斷 <chr>, 重大傷病 <chr>, 資料年齡 <chr>

資料結合 - right_join()

保留右邊的表所有的列
使用方法 right_join(x, y, by = )

library(dplyr)
right_join(BasicS,EMDiagS,by="歸戶代號")

# A tibble: 4,027 x 14
   院區.x                                 歸戶代號  性別     生日 院區.y
    <chr>                                    <chr> <chr>    <int>  <int>
 1      3 29FA4C0973C651385CE1459594B633CD03D46F8C     F 19470621      3
 2      5 29FA4C0973C651385CE1459594B633CD03D46F8C     F 19470621      3
 3      3 BC9343E012826E01ECE6B33D9C2B774F11EFC549     F 19651210      3
 4      3 BC9343E012826E01ECE6B33D9C2B774F11EFC549     F 19651210      3
 5      3 BC9343E012826E01ECE6B33D9C2B774F11EFC549     F 19651210      3
 6      3 BC9343E012826E01ECE6B33D9C2B774F11EFC549     F 19651210      3
 7      2 5E50709499C0D51FE8120E15CC83F3AEDDB55567     M 19530531      3
 8      8 5E50709499C0D51FE8120E15CC83F3AEDDB55567     M 19530531      3
 9      5 5E50709499C0D51FE8120E15CC83F3AEDDB55567     M 19530531      3
10      3 5E50709499C0D51FE8120E15CC83F3AEDDB55567     M 19530531      3
# ... with 4,017 more rows, and 9 more variables: 資料年月 <int>,
#   輸入日期 <int>, 門診號 <chr>, 掛號科別 <chr>, 疾病序號 <int>,
#   疾病碼 <chr>, 主診斷 <chr>, 重大傷病 <chr>, 資料年齡 <chr>

資料結合 - full_join()

保留所有的列
使用方法 full_join(x, y, by = )

library(dplyr)
full_join(BasicS,EMDiagS,by="歸戶代號")

# A tibble: 4,532 x 14
   院區.x                                 歸戶代號  性別     生日 院區.y
    <chr>                                    <chr> <chr>    <int>  <int>
 1      1 DB26EFB5F66F696208693AA3D402D03B2B8D1CB5     F 19581201      3
 2      1 DB26EFB5F66F696208693AA3D402D03B2B8D1CB5     F 19581201      3
 3      1 DB26EFB5F66F696208693AA3D402D03B2B8D1CB5     F 19581201      3
 4      1 DB26EFB5F66F696208693AA3D402D03B2B8D1CB5     F 19581201      3
 5      1 DB26EFB5F66F696208693AA3D402D03B2B8D1CB5     F 19581201      3
 6      5 80DB2AFAAEADC0874A35C71DB8CC693B6B33D7BF     F 19680725      3
 7      5 80DB2AFAAEADC0874A35C71DB8CC693B6B33D7BF     F 19680725      3
 8      5 80DB2AFAAEADC0874A35C71DB8CC693B6B33D7BF     F 19680725      3
 9      5 80DB2AFAAEADC0874A35C71DB8CC693B6B33D7BF     F 19680725      3
10      5 80DB2AFAAEADC0874A35C71DB8CC693B6B33D7BF     F 19680725      3
# ... with 4,522 more rows, and 9 more variables: 資料年月 <int>,
#   輸入日期 <int>, 門診號 <chr>, 掛號科別 <chr>, 疾病序號 <int>,
#   疾病碼 <chr>, 主診斷 <chr>, 重大傷病 <chr>, 資料年齡 <chr>

資料結合 - semi_join()

留下左邊的ID也有出現在右邊的表的列，右表資料不會輸出
使用方法 semi_join(x, y, by = )

library(dplyr)
semi_join(BasicS,EMDiagS,by="歸戶代號")

# A tibble: 576 x 4
    院區                                 歸戶代號  性別     生日
   <chr>                                    <chr> <chr>    <int>
 1     3 29FA4C0973C651385CE1459594B633CD03D46F8C     F 19470621
 2     5 29FA4C0973C651385CE1459594B633CD03D46F8C     F 19470621
 3     3 BC9343E012826E01ECE6B33D9C2B774F11EFC549     F 19651210
 4     2 5E50709499C0D51FE8120E15CC83F3AEDDB55567     M 19530531
 5     8 5E50709499C0D51FE8120E15CC83F3AEDDB55567     M 19530531
 6     5 5E50709499C0D51FE8120E15CC83F3AEDDB55567     M 19530531
 7     3 5E50709499C0D51FE8120E15CC83F3AEDDB55567     M 19530531
 8     1 5E50709499C0D51FE8120E15CC83F3AEDDB55567     M 19530531
 9     3 69C7F47995F8A9265B3D115058E8B4D4F164B9AB     F 19380428
10     1 69C7F47995F8A9265B3D115058E8B4D4F164B9AB     F 19380428
# ... with 566 more rows
…
